%YAML 1.1
%TAG !u! tag:unity3d.com,2011:
--- !u!29 &1
OcclusionCullingSettings:
  m_ObjectHideFlags: 0
  serializedVersion: 2
  m_OcclusionBakeSettings:
    smallestOccluder: 5
    smallestHole: 0.25
    backfaceThreshold: 100
  m_SceneGUID: 00000000000000000000000000000000
  m_OcclusionCullingData: {fileID: 0}
--- !u!104 &2
RenderSettings:
  m_ObjectHideFlags: 0
  serializedVersion: 8
  m_Fog: 0
  m_FogColor: {r: 0.5, g: 0.5, b: 0.5, a: 1}
  m_FogMode: 3
  m_FogDensity: 0.01
  m_LinearFogStart: 0
  m_LinearFogEnd: 300
  m_AmbientSkyColor: {r: 0.2, g: 0.2, b: 0.2, a: 1}
  m_AmbientEquatorColor: {r: 0.2, g: 0.2, b: 0.2, a: 1}
  m_AmbientGroundColor: {r: 0.2, g: 0.2, b: 0.2, a: 1}
  m_AmbientIntensity: 1
  m_AmbientMode: 3
  m_SubtractiveShadowColor: {r: 0.42, g: 0.478, b: 0.627, a: 1}
  m_SkyboxMaterial: {fileID: 0}
  m_HaloStrength: 0.5
  m_FlareStrength: 1
  m_FlareFadeSpeed: 3
  m_HaloTexture: {fileID: 0}
  m_SpotCookie: {fileID: 10001, guid: 0000000000000000e000000000000000, type: 0}
  m_DefaultReflectionMode: 0
  m_DefaultReflectionResolution: 128
  m_ReflectionBounces: 1
  m_ReflectionIntensity: 1
  m_CustomReflection: {fileID: 0}
  m_Sun: {fileID: 0}
  m_IndirectSpecularColor: {r: 0, g: 0, b: 0, a: 1}
--- !u!157 &4
LightmapSettings:
  m_ObjectHideFlags: 0
  serializedVersion: 11
  m_GIWorkflowMode: 1
  m_GISettings:
    serializedVersion: 2
    m_BounceScale: 1
    m_IndirectOutputScale: 1
    m_AlbedoBoost: 1
    m_TemporalCoherenceThreshold: 1
    m_EnvironmentLightingMode: 0
    m_EnableBakedLightmaps: 1
    m_EnableRealtimeLightmaps: 0
  m_LightmapEditorSettings:
    serializedVersion: 9
    m_Resolution: 1
    m_BakeResolution: 50
    m_TextureWidth: 1024
    m_TextureHeight: 1024
    m_AO: 1
    m_AOMaxDistance: 1
    m_CompAOExponent: 1
    m_CompAOExponentDirect: 0
    m_Padding: 2
    m_LightmapParameters: {fileID: 0}
    m_LightmapsBakeMode: 1
    m_TextureCompression: 0
    m_FinalGather: 0
    m_FinalGatherFiltering: 1
    m_FinalGatherRayCount: 256
    m_ReflectionCompression: 2
    m_MixedBakeMode: 1
    m_BakeBackend: 0
    m_PVRSampling: 1
    m_PVRDirectSampleCount: 32
    m_PVRSampleCount: 500
    m_PVRBounces: 2
    m_PVRFiltering: 0
    m_PVRFilteringMode: 1
    m_PVRCulling: 1
    m_PVRFilteringGaussRadiusDirect: 1
    m_PVRFilteringGaussRadiusIndirect: 5
    m_PVRFilteringGaussRadiusAO: 2
    m_PVRFilteringAtrousColorSigma: 1
    m_PVRFilteringAtrousNormalSigma: 1
    m_PVRFilteringAtrousPositionSigma: 1
  m_LightingDataAsset: {fileID: 0}
  m_UseShadowmask: 0
--- !u!196 &5
NavMeshSettings:
  serializedVersion: 2
  m_ObjectHideFlags: 0
  m_BuildSettings:
    serializedVersion: 2
    agentTypeID: 0
    agentRadius: 0.5
    agentHeight: 2
    agentSlope: 45
    agentClimb: 0.4
    ledgeDropHeight: 0
    maxJumpAcrossDistance: 0
    minRegionArea: 2
    manualCellSize: 0
    cellSize: 0.16666666
    manualTileSize: 0
    tileSize: 256
    accuratePlacement: 0
  m_NavMeshData: {fileID: 0}
--- !u!1001 &481519059
Prefab:
  m_ObjectHideFlags: 0
  serializedVersion: 2
  m_Modification:
    m_TransformParent: {fileID: 0}
    m_Modifications:
    - target: {fileID: 400100, guid: 40046bae76ac54bffb59f14f47d9ba1b, type: 2}
      propertyPath: m_LocalPosition.x
      value: 0
      objectReference: {fileID: 0}
    - target: {fileID: 400100, guid: 40046bae76ac54bffb59f14f47d9ba1b, type: 2}
      propertyPath: m_LocalPosition.y
      value: 0
      objectReference: {fileID: 0}
    - target: {fileID: 400100, guid: 40046bae76ac54bffb59f14f47d9ba1b, type: 2}
      propertyPath: m_LocalPosition.z
      value: 0
      objectReference: {fileID: 0}
    - target: {fileID: 400100, guid: 40046bae76ac54bffb59f14f47d9ba1b, type: 2}
      propertyPath: m_LocalRotation.x
      value: 0
      objectReference: {fileID: 0}
    - target: {fileID: 400100, guid: 40046bae76ac54bffb59f14f47d9ba1b, type: 2}
      propertyPath: m_LocalRotation.y
      value: 0
      objectReference: {fileID: 0}
    - target: {fileID: 400100, guid: 40046bae76ac54bffb59f14f47d9ba1b, type: 2}
      propertyPath: m_LocalRotation.z
      value: 0
      objectReference: {fileID: 0}
    - target: {fileID: 400100, guid: 40046bae76ac54bffb59f14f47d9ba1b, type: 2}
      propertyPath: m_LocalRotation.w
      value: 1
      objectReference: {fileID: 0}
    - target: {fileID: 400202, guid: 40046bae76ac54bffb59f14f47d9ba1b, type: 2}
      propertyPath: m_LocalRotation.x
      value: .224375039
      objectReference: {fileID: 0}
    - target: {fileID: 400202, guid: 40046bae76ac54bffb59f14f47d9ba1b, type: 2}
      propertyPath: m_LocalRotation.y
      value: .670563996
      objectReference: {fileID: 0}
    - target: {fileID: 400202, guid: 40046bae76ac54bffb59f14f47d9ba1b, type: 2}
      propertyPath: m_LocalRotation.z
      value: -.506723344
      objectReference: {fileID: 0}
    - target: {fileID: 400202, guid: 40046bae76ac54bffb59f14f47d9ba1b, type: 2}
      propertyPath: m_LocalRotation.w
      value: -.493184894
      objectReference: {fileID: 0}
    - target: {fileID: 400106, guid: 40046bae76ac54bffb59f14f47d9ba1b, type: 2}
      propertyPath: m_LocalRotation.x
      value: -.0937465355
      objectReference: {fileID: 0}
    - target: {fileID: 400106, guid: 40046bae76ac54bffb59f14f47d9ba1b, type: 2}
      propertyPath: m_LocalRotation.y
      value: .697855115
      objectReference: {fileID: 0}
    - target: {fileID: 400106, guid: 40046bae76ac54bffb59f14f47d9ba1b, type: 2}
      propertyPath: m_LocalRotation.z
      value: .707468987
      objectReference: {fileID: 0}
    - target: {fileID: 400106, guid: 40046bae76ac54bffb59f14f47d9ba1b, type: 2}
      propertyPath: m_LocalRotation.w
      value: .060806755
      objectReference: {fileID: 0}
    - target: {fileID: 400100, guid: 40046bae76ac54bffb59f14f47d9ba1b, type: 2}
      propertyPath: m_RootOrder
      value: 1
      objectReference: {fileID: 0}
    m_RemovedComponents: []
  m_ParentPrefab: {fileID: 100100000, guid: 40046bae76ac54bffb59f14f47d9ba1b, type: 2}
  m_IsPrefabParent: 0
--- !u!1001 &511098408
Prefab:
  m_ObjectHideFlags: 0
  serializedVersion: 2
  m_Modification:
    m_TransformParent: {fileID: 0}
    m_Modifications:
    - target: {fileID: 400000, guid: b76c71a1e3f6c4fdab657f4fbf5466de, type: 2}
      propertyPath: m_LocalPosition.x
      value: -0.9961195
      objectReference: {fileID: 0}
    - target: {fileID: 400000, guid: b76c71a1e3f6c4fdab657f4fbf5466de, type: 2}
      propertyPath: m_LocalPosition.y
      value: 2.05728
      objectReference: {fileID: 0}
    - target: {fileID: 400000, guid: b76c71a1e3f6c4fdab657f4fbf5466de, type: 2}
      propertyPath: m_LocalPosition.z
      value: -0.18584895
      objectReference: {fileID: 0}
    - target: {fileID: 400000, guid: b76c71a1e3f6c4fdab657f4fbf5466de, type: 2}
      propertyPath: m_LocalRotation.x
      value: -0.8567529
      objectReference: {fileID: 0}
    - target: {fileID: 400000, guid: b76c71a1e3f6c4fdab657f4fbf5466de, type: 2}
      propertyPath: m_LocalRotation.y
      value: 0.3769421
      objectReference: {fileID: 0}
    - target: {fileID: 400000, guid: b76c71a1e3f6c4fdab657f4fbf5466de, type: 2}
      propertyPath: m_LocalRotation.z
      value: -0.24336958
      objectReference: {fileID: 0}
    - target: {fileID: 400000, guid: b76c71a1e3f6c4fdab657f4fbf5466de, type: 2}
      propertyPath: m_LocalRotation.w
      value: -0.25428426
      objectReference: {fileID: 0}
    - target: {fileID: 10800000, guid: b76c71a1e3f6c4fdab657f4fbf5466de, type: 2}
      propertyPath: m_Intensity
      value: 1.41
      objectReference: {fileID: 0}
    - target: {fileID: 400000, guid: b76c71a1e3f6c4fdab657f4fbf5466de, type: 2}
      propertyPath: m_RootOrder
      value: 2
      objectReference: {fileID: 0}
    m_RemovedComponents: []
  m_ParentPrefab: {fileID: 100100000, guid: b76c71a1e3f6c4fdab657f4fbf5466de, type: 2}
  m_IsPrefabParent: 0
--- !u!1001 &814876588
Prefab:
  m_ObjectHideFlags: 0
  serializedVersion: 2
  m_Modification:
    m_TransformParent: {fileID: 0}
    m_Modifications:
    - target: {fileID: 400000, guid: 79674db77adfc4d6f9f17fb043493b1e, type: 2}
      propertyPath: m_LocalPosition.x
      value: -0.1
      objectReference: {fileID: 0}
    - target: {fileID: 400000, guid: 79674db77adfc4d6f9f17fb043493b1e, type: 2}
      propertyPath: m_LocalPosition.y
      value: 1.3
      objectReference: {fileID: 0}
    - target: {fileID: 400000, guid: 79674db77adfc4d6f9f17fb043493b1e, type: 2}
      propertyPath: m_LocalPosition.z
      value: -2
      objectReference: {fileID: 0}
    - target: {fileID: 400000, guid: 79674db77adfc4d6f9f17fb043493b1e, type: 2}
      propertyPath: m_LocalRotation.x
      value: 0.12619898
      objectReference: {fileID: 0}
    - target: {fileID: 400000, guid: 79674db77adfc4d6f9f17fb043493b1e, type: 2}
      propertyPath: m_LocalRotation.y
      value: 0
      objectReference: {fileID: 0}
    - target: {fileID: 400000, guid: 79674db77adfc4d6f9f17fb043493b1e, type: 2}
      propertyPath: m_LocalRotation.z
      value: 0
      objectReference: {fileID: 0}
    - target: {fileID: 400000, guid: 79674db77adfc4d6f9f17fb043493b1e, type: 2}
      propertyPath: m_LocalRotation.w
      value: 0.992005
      objectReference: {fileID: 0}
    - target: {fileID: 400000, guid: 79674db77adfc4d6f9f17fb043493b1e, type: 2}
      propertyPath: m_RootOrder
      value: 3
      objectReference: {fileID: 0}
    m_RemovedComponents: []
  m_ParentPrefab: {fileID: 100100000, guid: 79674db77adfc4d6f9f17fb043493b1e, type: 2}
  m_IsPrefabParent: 0
--- !u!1001 &985042450
Prefab:
  m_ObjectHideFlags: 0
  serializedVersion: 2
  m_Modification:
    m_TransformParent: {fileID: 0}
    m_Modifications:
    - target: {fileID: 400000, guid: cd7e5cc2b3a974d4f830ea9d14a6383b, type: 2}
      propertyPath: m_LocalPosition.x
      value: 0
      objectReference: {fileID: 0}
    - target: {fileID: 400000, guid: cd7e5cc2b3a974d4f830ea9d14a6383b, type: 2}
      propertyPath: m_LocalPosition.y
      value: 0
      objectReference: {fileID: 0}
    - target: {fileID: 400000, guid: cd7e5cc2b3a974d4f830ea9d14a6383b, type: 2}
      propertyPath: m_LocalPosition.z
      value: 0
      objectReference: {fileID: 0}
    - target: {fileID: 400000, guid: cd7e5cc2b3a974d4f830ea9d14a6383b, type: 2}
      propertyPath: m_LocalRotation.x
      value: 0
      objectReference: {fileID: 0}
    - target: {fileID: 400000, guid: cd7e5cc2b3a974d4f830ea9d14a6383b, type: 2}
      propertyPath: m_LocalRotation.y
      value: 0
      objectReference: {fileID: 0}
    - target: {fileID: 400000, guid: cd7e5cc2b3a974d4f830ea9d14a6383b, type: 2}
      propertyPath: m_LocalRotation.z
      value: 0
      objectReference: {fileID: 0}
    - target: {fileID: 400000, guid: cd7e5cc2b3a974d4f830ea9d14a6383b, type: 2}
      propertyPath: m_LocalRotation.w
      value: 1
      objectReference: {fileID: 0}
    m_RemovedComponents: []
  m_ParentPrefab: {fileID: 100100000, guid: cd7e5cc2b3a974d4f830ea9d14a6383b, type: 2}
  m_IsPrefabParent: 0
--- !u!1 &1016660597
GameObject:
  m_ObjectHideFlags: 0
  m_PrefabParentObject: {fileID: 0}
  m_PrefabInternal: {fileID: 0}
  serializedVersion: 5
  m_Component:
  - component: {fileID: 1016660601}
  - component: {fileID: 1016660600}
  - component: {fileID: 1016660599}
  - component: {fileID: 1016660598}
  m_Layer: 0
  m_Name: Plane
  m_TagString: Untagged
  m_Icon: {fileID: 0}
  m_NavMeshLayer: 0
  m_StaticEditorFlags: 0
  m_IsActive: 1
--- !u!23 &1016660598
MeshRenderer:
  m_ObjectHideFlags: 0
  m_PrefabParentObject: {fileID: 0}
  m_PrefabInternal: {fileID: 0}
  m_GameObject: {fileID: 1016660597}
  m_Enabled: 1
  m_CastShadows: 1
  m_ReceiveShadows: 1
  m_MotionVectors: 1
  m_LightProbeUsage: 0
  m_ReflectionProbeUsage: 1
  m_Materials:
  - {fileID: 2100000, guid: 330274cf2c5de4464a4b4b243b59e371, type: 2}
  m_StaticBatchInfo:
    firstSubMesh: 0
    subMeshCount: 0
  m_StaticBatchRoot: {fileID: 0}
  m_ProbeAnchor: {fileID: 0}
  m_LightProbeVolumeOverride: {fileID: 0}
  m_ScaleInLightmap: 1
  m_PreserveUVs: 0
  m_IgnoreNormalsForChartDetection: 0
  m_ImportantGI: 0
  m_SelectedEditorRenderState: 3
  m_MinimumChartSize: 4
  m_AutoUVMaxDistance: 0.5
  m_AutoUVMaxAngle: 89
  m_LightmapParameters: {fileID: 0}
  m_SortingLayerID: 0
  m_SortingLayer: 0
  m_SortingOrder: 0
--- !u!64 &1016660599
MeshCollider:
  m_ObjectHideFlags: 0
  m_PrefabParentObject: {fileID: 0}
  m_PrefabInternal: {fileID: 0}
  m_GameObject: {fileID: 1016660597}
  m_Material: {fileID: 0}
  m_IsTrigger: 0
  m_Enabled: 1
  serializedVersion: 2
  m_Convex: 0
  m_InflateMesh: 0
  m_SkinWidth: 0.01
  m_Mesh: {fileID: 10209, guid: 0000000000000000e000000000000000, type: 0}
--- !u!33 &1016660600
MeshFilter:
  m_ObjectHideFlags: 0
  m_PrefabParentObject: {fileID: 0}
  m_PrefabInternal: {fileID: 0}
  m_GameObject: {fileID: 1016660597}
  m_Mesh: {fileID: 10209, guid: 0000000000000000e000000000000000, type: 0}
--- !u!4 &1016660601
Transform:
  m_ObjectHideFlags: 0
  m_PrefabParentObject: {fileID: 0}
  m_PrefabInternal: {fileID: 0}
  m_GameObject: {fileID: 1016660597}
  m_LocalRotation: {x: 0, y: 0, z: 0, w: 1}
  m_LocalPosition: {x: 0, y: 0, z: 0}
  m_LocalScale: {x: 10, y: 10, z: 10}
  m_Children: []
  m_Father: {fileID: 0}
  m_RootOrder: 4
  m_LocalEulerAnglesHint: {x: 0, y: 0, z: 0}
